*************************************** com.ubercab_v4.201.10002-35229_Android-5.0.apk *********************************************
***************** GET|POST|DELETE|PUT|PATCH|/v1/|/v2/|/v3/|/v4/|/rt/|/users/|/profiles/|/account/|/accounts/ *****************================ com.ubercab_v4.201.10002-35229_Android-5.0.apk ===========
***************** [t|T][w|W][i|I][t|T][t|T][e|E][r|R].*.[0-9a-zA-Z]{35,44} *****************================ com.ubercab_v4.201.10002-35229_Android-5.0.apk ===========
***************** BEGIN DSA PRIVATE KEY *****************================ com.ubercab_v4.201.10002-35229_Android-5.0.apk ===========
***************** [f|F][a|A][c|C][e|E][b|B][o|O][o|O][k|K].*.[0-9a-f]{32} *****************================ com.ubercab_v4.201.10002-35229_Android-5.0.apk ===========
***************** [t|T][w|W][i|I][t|T][t|T][e|E][r|R].*['|"][0-9a-zA-Z]{35,44}['|"] *****************================ com.ubercab_v4.201.10002-35229_Android-5.0.apk ===========
***************** BEGIN EC PRIVATE KEY *****************================ com.ubercab_v4.201.10002-35229_Android-5.0.apk ===========
***************** [a|A][p|P][p|P][s|S][e|E][c|C][r|R][e|E][t|T].*.[0-9a-zA-Z]{32,45} *****************================ com.ubercab_v4.201.10002-35229_Android-5.0.apk ===========
***************** [c|C][l|L][i|I][e|E][n|N][T|T][_][s|S][e|E][c|C][r|R][e|E][t|T].*[:].*[a-zA-Z0-9_-]{24} *****************================ com.ubercab_v4.201.10002-35229_Android-5.0.apk ===========
***************** xox[p|b|o|a].* *****************================ com.ubercab_v4.201.10002-35229_Android-5.0.apk ===========
***************** [a|A][p|P][p|P][s|S][e|E][c|C][r|R][e|E][t|T].*['|"][0-9a-zA-Z]{32,45}['|"] *****************================ com.ubercab_v4.201.10002-35229_Android-5.0.apk ===========
***************** [s|S][e|E][c|C][r|R][e|E][t|T].*['|"][0-9a-zA-Z]{32,45}['|"] *****************================ com.ubercab_v4.201.10002-35229_Android-5.0.apk ===========
***************** BEGIN PGP PRIVATE KEY BLOCK *****************================ com.ubercab_v4.201.10002-35229_Android-5.0.apk ===========
***************** AKIA[0-9A-Z]{16} *****************================ com.ubercab_v4.201.10002-35229_Android-5.0.apk ===========
***************** [g|G][i|I][t|T][h|H][u|U][b|B].*[['|"]0-9a-zA-Z]{35,40}['|"] *****************================ com.ubercab_v4.201.10002-35229_Android-5.0.apk ===========
***************** BEGIN RSA PRIVATE KEY *****************================ com.ubercab_v4.201.10002-35229_Android-5.0.apk ===========
***************** BEGIN PRIVATE KEY *****************================ com.ubercab_v4.201.10002-35229_Android-5.0.apk ===========
***************** [g|G][i|I][t|T][h|H][u|U][b|B].*[c|C][l|L][i|I][e|E][n|N][T|T][s|S][e|E][c|C][r|R][e|E][t|T].*[0-9a-zA-Z]{35,40} *****************================ com.ubercab_v4.201.10002-35229_Android-5.0.apk ===========
***************** ("client_secret":"[a-zA-Z0-9_-]{24}") *****************================ com.ubercab_v4.201.10002-35229_Android-5.0.apk ===========
***************** [f|F][a|A][c|C][e|E][b|B][o|O][o|O][k|K].*['|"][0-9a-f]{32}['|"] *****************================ com.ubercab_v4.201.10002-35229_Android-5.0.apk ===========
***************** BEGIN OPENSSH PRIVATE KEY *****************================ com.ubercab_v4.201.10002-35229_Android-5.0.apk ===========
***************** [h|H][e|E][r|R][o|O][k|K][u|U].*[0-9A-F]{8}-[0-9A-F]{4}-[0-9A-F]{4}-[0-9A-F]{4}-[0-9A-F]{12} *****************================ com.ubercab_v4.201.10002-35229_Android-5.0.apk ===========
***************** .*[p|P][a|A][s|S][s|S][w|W][o|O][r|R][d|D].*=.* *****************================ com.ubercab_v4.201.10002-35229_Android-5.0.apk ===========
***************** deeplinkschema:// *****************================ com.ubercab_v4.201.10002-35229_Android-5.0.apk ===========
